[
	{"id":1,"name":"A. Leonetti","email":"a0@adventure-works.com","isSubscriber":false},
	{"id":2,"name":"A. Wright","email":"a1@adventure-works.com","isSubscriber":false},
	{"id":3,"name":"Aaron Con","email":"aaron0@adventure-works.com","isSubscriber":false},
	{"id":4,"name":"Aaron Con2","email":"aaron1@adventure-works.com","isSubscriber":false},
	{"id":5,"name":"Aaron Hughes","email":"aaron10@adventure-works.com","isSubscriber":false},
	{"id":6,"name":"Aaron Flores","email":"aaron11@adventure-works.com","isSubscriber":false},
	{"id":7,"name":"Aaron Washington","email":"aaron12@adventure-works.com","isSubscriber":false},
	{"id":8,"name":"Aaron Butler","email":"aaron13@adventure-works.com","isSubscriber":false},
	{"id":9,"name":"Aaron Simmons","email":"aaron14@adventure-works.com","isSubscriber":false},
	{"id":10,"name":"Aaron Foster","email":"aaron15@adventure-works.com","isSubscriber":false},
	{"id":11,"name":"Aaron Gonzales","email":"aaron16@adventure-works.com","isSubscriber":false},
	{"id":12,"name":"Aaron Bryant","email":"aaron17@adventure-works.com","isSubscriber":false},
	{"id":13,"name":"Aaron Alexander","email":"aaron18@adventure-works.com","isSubscriber":false},
	{"id":14,"name":"Aaron Russell","email":"aaron19@adventure-works.com","isSubscriber":false},
	{"id":15,"name":"Aaron Nicholls","email":"aaron2@adventure-works.com","isSubscriber":false},
	{"id":16,"name":"Aaron Griffin","email":"aaron20@adventure-works.com","isSubscriber":false},
	{"id":17,"name":"Aaron Diaz","email":"aaron21@adventure-works.com","isSubscriber":false},
	{"id":18,"name":"Aaron Hayes","email":"aaron22@adventure-works.com","isSubscriber":false},
	{"id":19,"name":"Aaron Zhang","email":"aaron23@adventure-works.com","isSubscriber":false},
	{"id":20,"name":"Aaron Wang","email":"aaron24@adventure-works.com","isSubscriber":false}
]

